# This file uses centimeters as units for non-parametric coordinates.

mtllib sharkc.mtl
g skinCluster1Set tweakSet1
v -1.939816 0.033480 0.037748
v 2.625861 -0.091142 0.236734
v -1.939830 0.138788 0.037687
v 2.625861 0.011984 0.236734
v -1.936660 0.138788 -0.082558
v 2.625861 0.011772 -0.255412
v -1.936681 0.033480 -0.082515
v 2.625861 -0.104236 -0.255412
v -2.163119 0.138788 -0.058434
v -1.983292 -0.045809 -0.053438
v 2.625861 -0.142154 -0.015211
v 2.625861 0.069534 -0.015211
v -2.165085 0.138788 0.010875
v -1.985187 -0.045809 0.015909
v 2.625861 -0.142154 0.020216
v 2.625861 0.069534 0.020216
v -0.093217 0.248406 -0.463509
v 0.030376 -0.260345 -0.463239
v 0.029440 -0.387535 -0.029576
v 0.029300 -0.387535 0.039764
v 0.028359 -0.260345 0.463625
v -0.095421 0.248406 0.463369
v -0.094433 0.417365 0.039533
v -0.094266 0.417365 -0.029847
v 0.753516 0.299711 -0.462854
v 0.753461 -0.272347 -0.462945
v 0.753187 -0.401036 -0.029527
v 0.753155 -0.401036 0.040006
v 0.752869 -0.272346 0.463963
v 0.752861 0.299711 0.463974
v 0.753151 0.475079 0.040095
v 0.753195 0.475079 -0.029287
v 0.753334 0.299862 -0.464756
v 0.753298 -0.272498 -0.464818
v 0.753182 -0.401036 -0.029677
v 0.753170 -0.401036 0.039733
v 0.753038 -0.272498 0.465260
v 0.753043 0.299862 0.465252
v 0.753165 0.335439 0.039823
v 0.753186 0.335439 -0.029550
v 0.140111 0.963470 0.039911
v 0.140241 0.963470 -0.029402
v 0.369619 0.854091 0.040130
v 0.369718 0.854091 -0.029127
v 1.731372 0.230107 -0.344968
v 1.731368 -0.237303 -0.344988
v 1.731362 -0.361615 -0.022166
v 1.731362 -0.361615 0.029474
v 1.731356 -0.237303 0.345053
v 1.731355 0.230107 0.345058
v 1.731362 0.323841 0.029489
v 1.731362 0.323841 -0.022160
v -1.709466 0.173242 -0.045547
v -1.711332 0.173242 0.023674
v -1.712885 0.140171 0.090020
v -1.697456 -0.004786 0.090803
v -1.695968 -0.018590 0.023812
v -1.694190 -0.018590 -0.045618
v -1.692478 -0.004786 -0.121456
v -1.707631 0.140171 -0.122189
v -2.715817 0.812310 -0.004999
v -2.544437 0.494159 -0.000178
v -2.713800 0.812310 -0.074558
v -2.542422 0.494159 -0.069505
v -1.993000 -0.360248 -0.053701
v -1.802488 -0.212308 -0.048555
v -1.804354 -0.212308 0.020776
v -1.994899 -0.360248 0.015617
v -1.188905 0.251951 -0.034159
v -1.189996 0.251951 0.035281
v -1.192371 0.175068 0.216830
v -1.141330 -0.087182 0.217098
v -1.139664 -0.137544 0.035800
v -1.138664 -0.137544 -0.033445
v -1.136906 -0.087182 -0.225623
v -1.186433 0.175068 -0.225895
v -1.523787 0.201320 -0.040596
v -1.525338 0.201320 0.028727
v -1.527515 0.152620 0.136473
v -1.499307 -0.034180 0.137666
v -1.497526 -0.061025 0.029320
v -1.496043 -0.061025 -0.040030
v -1.494104 -0.034180 -0.156780
v -1.521432 0.152620 -0.157902
v -1.409835 0.423019 0.031651
v -1.418888 0.278959 0.031297
v -1.408682 0.423019 -0.037691
v -1.417593 0.278959 -0.038055
v -1.347145 -0.186909 -0.036684
v -1.357337 -0.301083 -0.036756
v -1.358401 -0.301083 0.032577
v -1.348341 -0.186909 0.032638
v 0.753446 0.373961 -0.369705
v 1.731366 0.275541 -0.275645
v 2.625861 0.034387 -0.189149
v 2.625861 -0.129880 -0.189149
v 1.731364 -0.294299 -0.275655
v 0.753381 -0.333719 -0.369844
v 0.030131 -0.320219 -0.370090
v -1.136844 -0.110199 -0.185117
v -1.494202 -0.045915 -0.133294
v -1.692708 -0.010265 -0.106838
v -1.949512 0.011607 -0.074542
v -1.999114 0.138788 -0.075843
v -1.707951 0.160736 -0.107143
v -1.521859 0.178622 -0.133971
v -1.186869 0.210875 -0.185654
v -0.093414 0.316247 -0.370350
v 0.753308 0.335439 -0.370004
v 0.752909 0.371712 0.380958
v 1.731356 0.274467 0.283242
v 2.625861 0.033067 0.194318
v 2.625861 -0.128383 0.194317
v 1.731358 -0.292802 0.283224
v 0.752966 -0.332222 0.380839
v 0.028584 -0.318722 0.380593
v -1.141406 -0.109591 0.183068
v -1.499246 -0.045579 0.117842
v -1.697301 -0.010080 0.079373
v -1.951629 0.012884 0.032057
v -1.998363 0.138788 0.030787
v -1.712662 0.160458 0.078984
v -1.527177 0.178118 0.117042
v -1.192032 0.209962 0.182576
v -0.095248 0.313999 0.380347
v 0.753055 0.335439 0.380653
v 1.414291 -0.263218 -0.383265
v 1.414279 -0.323451 -0.306218
v 1.414254 -0.390767 -0.024583
v 1.414250 -0.390767 0.032869
v 1.414220 -0.321954 0.314865
v 1.414211 -0.263218 0.383566
v 1.414193 0.271089 0.383635
v 1.414197 0.326711 0.314968
v 1.414248 0.393588 0.032949
v 1.414255 0.393588 -0.024521
v 1.414300 0.328165 -0.306117
v 1.414328 0.271089 -0.383122
v 0.870690 -0.719404 -0.855840
v 0.869429 -0.780784 -0.738703
v 1.160611 -0.567950 -0.723738
v 1.159105 -0.622957 -0.628125
v 0.907323 -0.798465 0.784816
v 0.889172 -0.709560 0.866446
v 1.140165 -0.614712 0.602162
v 1.124423 -0.537900 0.667183
v -0.230049 -0.273383 -0.328446
v -0.229814 -0.221728 -0.409857
v -0.336880 0.232051 -0.410067
v -0.337154 0.292748 -0.328667
v -0.338410 0.380477 -0.030311
v -0.338747 0.380477 0.039390
v -0.339983 0.290798 0.336818
v -0.340178 0.232051 0.408917
v -0.232611 -0.221728 0.409021
v -0.232400 -0.272084 0.336929
v -0.231351 -0.331785 0.039397
v -0.231078 -0.331785 -0.029695
v -0.732740 -0.182959 -0.248509
v -0.732679 -0.147174 -0.307466
v -0.807780 0.200476 -0.307265
v -0.808131 0.247381 -0.248638
v -0.809765 0.309258 -0.031576
v -0.810398 0.309258 0.038378
v -0.812043 0.246005 0.252247
v -0.812291 0.200476 0.303322
v -0.735916 -0.147174 0.302989
v -0.735872 -0.182043 0.252192
v -0.734589 -0.224152 0.038182
v -0.734054 -0.224152 -0.030659
v -0.642008 -0.481774 -0.584715
v -0.503733 -0.446251 -0.564865
v -0.504287 -0.468500 -0.451187
v -0.623450 -0.519453 -0.511793
v -0.498808 -0.444726 0.501544
v -0.621977 -0.460921 0.523481
v -0.526431 -0.368543 0.570723
v -0.641999 -0.405878 0.572891
v 0.753554 0.079259 -0.499399
v 1.414330 0.083972 -0.413388
v 1.731368 0.086233 -0.372213
v 2.625861 -0.034410 -0.255412
v 2.657129 -0.031007 -0.189150
v 2.700911 -0.022074 -0.015211
v 2.700911 -0.022074 0.020216
v 2.657129 -0.031206 0.194317
v 2.625861 -0.034410 0.255413
v 1.731356 0.086233 0.372271
v 1.414171 0.083972 0.413944
v 0.752690 0.079259 0.500771
v -0.046208 0.049896 0.500036
v -0.297454 0.056115 0.441256
v -0.782079 0.068123 0.327355
v -1.172361 0.077785 0.234475
v -1.516592 0.086322 0.148467
v -1.706973 0.091056 0.098588
v -1.939832 0.096865 0.037661
v -1.979773 0.088666 0.031245
v -2.093473 0.065301 0.012890
v -2.091532 0.065301 -0.056432
v -1.979354 0.088158 -0.075376
v -1.936659 0.096865 -0.082585
v -1.701373 0.091056 -0.130371
v -1.510256 0.086322 -0.169160
v -1.166420 0.077785 -0.243185
v -0.777694 0.068123 -0.331361
v -0.294154 0.056115 -0.442293
v -0.043968 0.049896 -0.499958
v 0.753336 0.079259 -0.499748
vt 0.375000 0.000000
vt 0.625000 0.000000
vt 0.375000 0.250000
vt 0.625000 0.250000
vt 0.375000 0.500000
vt 0.625000 0.500000
vt 0.375000 0.750000
vt 0.625000 0.750000
vt 0.375000 1.000000
vt 0.625000 1.000000
vt 0.875000 0.000000
vt 0.875000 0.250000
vt 0.125000 0.000000
vt 0.125000 0.250000
vt 0.242555 0.250000
vt 0.375000 0.382445
vt 0.242555 0.000000
vt 0.375000 0.867555
vt 0.625000 0.867555
vt 0.757445 0.000000
vt 0.625000 0.382445
vt 0.757445 0.250000
vt 0.259894 0.250000
vt 0.375000 0.365106
vt 0.259894 0.000000
vt 0.375000 0.884894
vt 0.625000 0.884894
vt 0.740106 0.000000
vt 0.625000 0.365106
vt 0.740106 0.250000
vt 0.501457 0.500000
vt 0.501457 0.750000
vt 0.501457 0.867555
vt 0.501457 0.884894
vt 0.501457 0.000000
vt 0.501457 1.000000
vt 0.501457 0.250000
vt 0.501457 0.365106
vt 0.501457 0.382445
vt 0.537347 0.500000
vt 0.537347 0.750000
vt 0.537347 0.867555
vt 0.537347 0.884894
vt 0.537347 0.000000
vt 0.537347 1.000000
vt 0.537347 0.250000
vt 0.537347 0.365106
vt 0.537347 0.382445
vt 0.000000 0.000000
vt 1.000000 0.000000
vt 1.000000 1.000000
vt 0.000000 1.000000
vt 0.000000 0.000000
vt 1.000000 0.000000
vt 1.000000 1.000000
vt 0.000000 1.000000
vt 0.000000 0.000000
vt 1.000000 0.000000
vt 1.000000 1.000000
vt 0.000000 1.000000
vt 0.000000 0.000000
vt 1.000000 0.000000
vt 1.000000 1.000000
vt 0.000000 1.000000
vt 0.000000 0.000000
vt 1.000000 0.000000
vt 1.000000 1.000000
vt 0.000000 1.000000
vt 0.000000 0.000000
vt 1.000000 0.000000
vt 1.000000 1.000000
vt 0.000000 1.000000
vt 0.000000 0.000000
vt 1.000000 0.000000
vt 1.000000 1.000000
vt 0.000000 1.000000
vt 0.000000 0.000000
vt 1.000000 0.000000
vt 1.000000 1.000000
vt 0.000000 1.000000
vt 0.501457 0.382445
vt 0.501457 0.365106
vt 0.537347 0.365106
vt 0.537347 0.382445
vt 0.583132 0.500000
vt 0.583132 0.750000
vt 0.583132 0.867555
vt 0.583132 0.884894
vt 0.583132 0.000000
vt 0.583132 1.000000
vt 0.583132 0.250000
vt 0.583132 0.365106
vt 0.583132 0.382445
vt 0.390640 0.382445
vt 0.390640 0.365106
vt 0.390640 0.250000
vt 0.390640 0.000000
vt 0.390640 1.000000
vt 0.390640 0.884894
vt 0.390640 0.867555
vt 0.390640 0.750000
vt 0.390640 0.500000
vt 0.375000 0.365106
vt 0.390640 0.365106
vt 0.390640 0.382445
vt 0.375000 0.382445
vt 0.375000 0.867555
vt 0.390640 0.867555
vt 0.390640 0.884894
vt 0.375000 0.884894
vt 0.426369 0.382445
vt 0.426369 0.365106
vt 0.426369 0.250000
vt 0.426369 0.000000
vt 0.426369 1.000000
vt 0.426369 0.884894
vt 0.426369 0.867555
vt 0.426369 0.750000
vt 0.426369 0.500000
vt 0.403386 0.382445
vt 0.403386 0.365106
vt 0.403386 0.250000
vt 0.403386 0.000000
vt 0.403386 1.000000
vt 0.403386 0.884894
vt 0.403386 0.867555
vt 0.403386 0.750000
vt 0.403386 0.500000
vt 0.403386 0.365106
vt 0.426369 0.365106
vt 0.426369 0.382445
vt 0.403386 0.382445
vt 0.403386 0.867555
vt 0.426369 0.867555
vt 0.426369 0.884894
vt 0.403386 0.884894
vt 0.537347 0.467571
vt 0.724137 0.000000
vt 0.537347 0.467571
vt 0.583132 0.467571
vt 0.625000 0.467571
vt 0.842571 0.250000
vt 0.625000 0.782429
vt 0.842571 0.000000
vt 0.583132 0.782429
vt 0.537347 0.782429
vt 0.275863 0.000000
vt 0.537347 0.782429
vt 0.501457 0.782429
vt 0.426369 0.782429
vt 0.403386 0.782429
vt 0.390640 0.782429
vt 0.157429 0.000000
vt 0.375000 0.782429
vt 0.157429 0.250000
vt 0.375000 0.467571
vt 0.390640 0.467571
vt 0.403386 0.467571
vt 0.426369 0.467571
vt 0.501457 0.467571
vt 0.724137 1.000000
vt 0.537347 0.279900
vt 0.259763 0.000000
vt 0.537347 0.279900
vt 0.583132 0.279900
vt 0.625000 0.279900
vt 0.654900 0.250000
vt 0.625000 0.970100
vt 0.654900 0.000000
vt 0.583132 0.970100
vt 0.537347 0.970100
vt 0.740237 0.000000
vt 0.537347 0.970100
vt 0.501457 0.970100
vt 0.426369 0.970100
vt 0.403386 0.970100
vt 0.390640 0.970100
vt 0.345100 0.000000
vt 0.375000 0.970100
vt 0.345100 0.250000
vt 0.375000 0.279900
vt 0.390640 0.279900
vt 0.403386 0.279900
vt 0.426369 0.279900
vt 0.501457 0.279900
vt 0.259763 1.000000
vt 0.568289 0.750000
vt 0.568289 0.782429
vt 0.568289 0.867555
vt 0.568289 0.884894
vt 0.568289 0.970100
vt 0.568289 0.000000
vt 0.568289 1.000000
vt 0.568289 0.250000
vt 0.568289 0.279900
vt 0.568289 0.365106
vt 0.568289 0.382445
vt 0.568289 0.467571
vt 0.568289 0.500000
vt 0.537347 0.782429
vt 0.537347 0.750000
vt 0.568289 0.750000
vt 0.568289 0.782429
vt 0.537347 1.000000
vt 0.537347 0.970100
vt 0.568289 0.970100
vt 0.568289 1.000000
vt 0.484712 0.782429
vt 0.484712 0.750000
vt 0.484712 0.500000
vt 0.484712 0.467571
vt 0.484712 0.382445
vt 0.484712 0.365106
vt 0.484712 0.279900
vt 0.484712 0.250000
vt 0.484712 0.000000
vt 0.484712 1.000000
vt 0.484712 0.970100
vt 0.484712 0.884894
vt 0.484712 0.867555
vt 0.452383 0.782429
vt 0.452383 0.750000
vt 0.452383 0.500000
vt 0.452383 0.467571
vt 0.452383 0.382445
vt 0.452383 0.365106
vt 0.452383 0.279900
vt 0.452383 0.250000
vt 0.452383 0.000000
vt 0.452383 1.000000
vt 0.452383 0.970100
vt 0.452383 0.884894
vt 0.452383 0.867555
vt 0.452383 0.750000
vt 0.484712 0.750000
vt 0.484712 0.782429
vt 0.452383 0.782429
vt 0.452383 0.970100
vt 0.484712 0.970100
vt 0.484712 1.000000
vt 0.452383 1.000000
vt 0.537347 0.599524
vt 0.398096 0.000000
vt 0.537347 0.599524
vt 0.568289 0.599524
vt 0.583132 0.599524
vt 0.625000 0.599524
vt 0.875000 0.150476
vt 0.842571 0.150476
vt 0.757445 0.150476
vt 0.740106 0.150476
vt 0.654900 0.150476
vt 0.625000 0.150476
vt 0.583132 0.150476
vt 0.568289 0.150476
vt 0.537347 0.150476
vt 0.601904 0.000000
vt 0.537347 0.150476
vt 0.501457 0.150476
vt 0.484712 0.150476
vt 0.452383 0.150476
vt 0.426369 0.150476
vt 0.403386 0.150476
vt 0.390640 0.150476
vt 0.375000 0.150476
vt 0.345100 0.150476
vt 0.259894 0.150476
vt 0.242555 0.150476
vt 0.157429 0.150476
vt 0.125000 0.150476
vt 0.375000 0.599524
vt 0.390640 0.599524
vt 0.403386 0.599524
vt 0.426369 0.599524
vt 0.452383 0.599524
vt 0.484712 0.599524
vt 0.501457 0.599524
vt 0.398096 1.000000
vn -0.227415 -0.163736 0.959934
vn -0.038299 -0.119886 0.992049
vn -0.051227 -0.019178 0.998503
vn -0.228363 -0.056556 0.971932
vn -0.155932 0.912740 0.377612
vn -0.079466 0.916668 0.391669
vn -0.082590 0.957194 0.277414
vn -0.144512 0.962477 0.229684
vn -0.223655 -0.055370 -0.973094
vn -0.049357 -0.019361 -0.998594
vn -0.036418 -0.119614 -0.992152
vn -0.222802 -0.162513 -0.961223
vn -0.206216 -0.966393 0.153494
vn -0.064063 -0.984379 0.163996
vn -0.061443 -0.953092 0.296379
vn -0.209348 -0.950274 0.230547
vn 0.897240 -0.418747 0.140043
vn 0.884922 -0.456023 0.094634
vn 0.990719 0.014974 0.135098
vn 0.980161 -0.013584 0.197738
vn -0.707239 -0.675215 0.209516
vn -0.172036 -0.103185 0.979672
vn -0.149878 -0.074315 0.985908
vn -0.559184 -0.505345 0.657221
vn -0.234387 -0.056212 -0.970517
vn -0.183602 -0.150729 -0.971376
vn -0.152384 -0.108485 -0.982349
vn -0.156949 -0.038623 -0.986851
vn -0.230369 -0.819735 -0.524370
vn -0.063234 -0.837333 -0.543025
vn -0.061666 -0.955016 -0.290072
vn -0.208322 -0.951626 -0.225856
vn 0.982718 -0.012286 -0.184699
vn 0.908742 -0.392976 -0.140565
vn 0.951017 -0.176265 -0.253965
vn 0.963887 -0.006945 -0.266220
vn -0.179359 0.786330 -0.591198
vn -0.153388 0.916732 -0.368882
vn -0.079044 0.920136 -0.383539
vn -0.073206 0.794698 -0.602575
vn -0.697046 -0.674185 -0.244135
vn -0.544749 -0.518484 -0.659107
vn -0.205686 -0.966927 -0.150815
vn -0.063943 -0.984904 -0.160859
vn 0.886196 -0.453728 -0.093747
vn 0.990969 0.014569 -0.133295
vn -0.082220 0.958696 -0.272292
vn -0.143528 0.963749 -0.224918
vn -0.002631 0.021429 -0.999767
vn 0.001810 -0.109690 -0.993964
vn -0.014571 -0.837965 -0.545529
vn -0.017628 -0.959876 -0.279872
vn -0.018377 -0.986663 -0.161738
vn -0.018442 -0.986103 0.165108
vn -0.017780 -0.958142 0.285739
vn 0.000552 -0.109897 0.993943
vn -0.004043 0.021703 0.999756
vn -0.062947 0.929658 0.363006
vn -0.065202 0.954952 0.289508
vn 0.430244 0.902712 0.000714
vn 0.430244 0.902712 0.000714
vn 0.430244 0.902713 0.000714
vn 0.430244 0.902713 0.000714
vn -0.062609 0.932244 -0.356372
vn -0.050651 0.794083 -0.605695
vn 0.126065 -0.003486 -0.992016
vn 0.127264 0.001723 -0.991867
vn 0.125563 -0.091523 -0.987855
vn 0.124815 -0.094128 -0.987705
vn 0.555598 -0.732453 -0.393475
vn 0.555598 -0.732453 -0.393475
vn 0.555598 -0.732453 -0.393475
vn 0.555598 -0.732453 -0.393475
vn 0.025339 -0.982936 0.182194
vn 0.024512 -0.983734 -0.177948
vn 0.046202 -0.981890 -0.183732
vn 0.047156 -0.981174 0.187279
vn 0.027085 -0.976085 0.215695
vn 0.050545 -0.964675 0.258549
vn 0.127063 -0.003780 0.991888
vn 0.125827 -0.094905 0.987502
vn 0.126599 -0.092179 0.987662
vn 0.128313 0.001476 0.991733
vn 0.109532 0.969636 0.218651
vn 0.110402 0.917669 0.381701
vn 0.129720 0.934934 0.330260
vn 0.133769 0.968956 0.207916
vn 0.109187 0.970803 -0.213587
vn 0.133269 0.969828 -0.204138
vn 0.110151 0.786850 -0.607234
vn 0.108960 0.921422 -0.372974
vn 0.129018 0.937215 -0.324009
vn 0.127222 0.791940 -0.597198
vn 0.984542 0.028134 -0.172875
vn 0.984542 0.028134 -0.172875
vn 0.984542 0.028134 -0.172875
vn 0.984542 0.028134 -0.172875
vn -0.999988 -0.004508 -0.001972
vn -0.999988 -0.004508 -0.001972
vn -0.999988 -0.004508 -0.001972
vn -0.999988 -0.004508 -0.001972
vn -0.999988 -0.004508 -0.001972
vn 0.000000 1.000000 -0.000001
vn 0.000000 1.000000 -0.000001
vn 0.000000 1.000000 -0.000001
vn 0.000000 1.000000 -0.000001
vn -0.999989 0.004183 -0.001944
vn -0.999989 0.004183 -0.001944
vn -0.999989 0.004183 -0.001944
vn -0.999989 0.004183 -0.001944
vn -0.999989 0.004183 -0.001944
vn -0.999882 -0.000014 -0.015328
vn -0.999883 -0.000014 -0.015328
vn -0.999883 -0.000014 -0.015328
vn -0.999883 -0.000014 -0.015328
vn -0.999883 -0.000014 -0.015328
vn -0.999937 -0.009244 -0.006295
vn -0.999999 -0.001100 -0.000781
vn -0.999999 -0.001395 -0.000981
vn -0.999937 -0.009244 -0.006295
vn -1.000000 -0.000017 -0.000470
vn -1.000000 -0.000017 -0.000470
vn -1.000000 -0.000017 -0.000470
vn -1.000000 -0.000017 -0.000470
vn -0.999999 0.000826 -0.000670
vn -0.999999 0.001035 -0.000801
vn -0.999999 0.001347 -0.000996
vn -0.999999 0.000826 -0.000670
vn -0.918850 0.394603 -0.001970
vn -0.918850 0.394603 -0.001970
vn -0.918850 0.394603 -0.001970
vn -0.918850 0.394603 -0.001970
vn -0.000752 -0.000568 1.000000
vn -0.000752 -0.000568 1.000000
vn -0.000752 -0.000568 1.000000
vn -0.000752 -0.000568 1.000000
vn 0.702928 0.711260 0.000727
vn 0.702928 0.711260 0.000727
vn 0.702928 0.711260 0.000727
vn 0.702928 0.711260 0.000727
vn 0.000813 0.000786 -0.999999
vn 0.000813 0.000786 -0.999999
vn 0.000813 0.000786 -0.999999
vn 0.000813 0.000786 -0.999999
vn 0.128801 0.021193 -0.991444
vn 0.120150 -0.027304 -0.992380
vn 0.114800 -0.068588 -0.991018
vn 0.121520 -0.076956 -0.989601
vn 0.175791 -0.940092 -0.292105
vn 0.173123 -0.820180 -0.545282
vn 0.189708 -0.838405 -0.510968
vn 0.211919 -0.943109 -0.256194
vn 0.180761 -0.968536 0.171066
vn 0.180065 -0.969498 -0.166286
vn 0.219674 -0.964092 -0.149228
vn 0.220168 -0.963164 0.154408
vn 0.179134 -0.931478 0.316639
vn 0.217216 -0.929299 0.298698
vn 0.140626 0.034596 0.989458
vn 0.127296 -0.100625 0.986747
vn 0.125665 -0.118876 0.984925
vn 0.136028 -0.039399 0.989921
vn 0.248597 0.954836 0.162747
vn 0.246057 0.930230 0.272263
vn 0.273426 0.925526 0.261993
vn 0.272744 0.948708 0.159886
vn 0.248113 0.955624 -0.158816
vn 0.272224 0.949532 -0.155829
vn 0.240679 0.848335 -0.471595
vn 0.245077 0.933361 -0.262249
vn 0.271207 0.930494 -0.246228
vn 0.263988 0.862051 -0.432641
vn -0.879941 -0.474395 -0.025553
vn -0.879941 -0.474395 -0.025553
vn -0.879941 -0.474395 -0.025553
vn -0.879941 -0.474395 -0.025553
vn -0.104893 0.910997 0.398850
vn -0.162134 0.883103 0.440274
vn -0.134802 0.970068 0.201981
vn -0.101056 0.920043 0.378560
vn -0.238154 -0.061120 0.969302
vn -0.245683 -0.095750 0.964610
vn -0.245265 -0.018735 0.969275
vn -0.238546 -0.009239 0.971087
vn -0.065307 -0.713296 0.697814
vn -0.170940 -0.939738 0.296093
vn -0.193938 -0.883159 0.427104
vn -0.065307 -0.713296 0.697814
vn 0.612932 -0.789960 0.016644
vn 0.612932 -0.789960 0.016644
vn 0.612932 -0.789960 0.016644
vn 0.612932 -0.789960 0.016644
vn -0.182385 -0.572881 -0.799089
vn -0.204584 -0.786662 -0.582502
vn -0.159291 -0.897860 -0.410456
vn -0.182385 -0.572881 -0.799089
vn -0.184008 -0.011441 -0.982858
vn -0.190806 -0.021709 -0.981388
vn -0.191763 -0.101484 -0.976180
vn -0.183438 -0.065576 -0.980842
vn -0.081545 0.939477 -0.332765
vn -0.130342 0.908064 -0.398033
vn -0.167578 0.590319 -0.789583
vn -0.139413 0.486874 -0.862275
vn -0.028529 0.000232 0.999593
vn -0.028529 0.000232 0.999593
vn -0.028529 0.000232 0.999593
vn -0.028529 0.000232 0.999593
vn 0.536448 0.843800 0.015013
vn 0.536448 0.843800 0.015013
vn 0.536448 0.843800 0.015013
vn 0.536448 0.843800 0.015013
vn 0.028511 -0.000620 -0.999593
vn 0.028511 -0.000620 -0.999593
vn 0.028511 -0.000620 -0.999593
vn 0.028511 -0.000620 -0.999593
vn -0.683250 -0.729921 -0.019619
vn -0.683250 -0.729921 -0.019619
vn -0.683250 -0.729921 -0.019619
vn -0.683250 -0.729921 -0.019619
vn 0.027016 0.000022 -0.999635
vn 0.027016 0.000022 -0.999635
vn 0.027016 0.000022 -0.999635
vn 0.027016 0.000022 -0.999635
vn 0.872396 -0.488263 0.022911
vn 0.872396 -0.488263 0.022911
vn 0.872396 -0.488263 0.022911
vn 0.872396 -0.488263 0.022911
vn -0.027129 -0.000239 0.999632
vn -0.027129 -0.000239 0.999632
vn -0.027129 -0.000239 0.999632
vn -0.027129 -0.000239 0.999632
vn -0.999149 0.030876 -0.027337
vn -0.999149 0.030876 -0.027337
vn -0.999149 0.030876 -0.027337
vn -0.999149 0.030876 -0.027337
vn -0.997904 0.062263 -0.017617
vn -0.997904 0.062263 -0.017617
vn -0.997904 0.062263 -0.017617
vn -0.997904 0.062263 -0.017617
vn -0.166485 0.910207 0.379218
vn -0.160533 0.912575 0.376080
vn -0.145835 0.964343 0.220852
vn -0.146960 0.966292 0.211381
vn -0.240638 -0.130948 0.961741
vn -0.231875 -0.147386 0.961515
vn -0.234254 -0.043027 0.971223
vn -0.243280 -0.032420 0.969414
vn -0.207582 -0.968340 0.138663
vn -0.206692 -0.967335 0.146770
vn -0.214197 -0.942654 0.255974
vn -0.214208 -0.949081 0.230997
vn -0.995958 0.088344 -0.016233
vn -0.995958 0.088344 -0.016233
vn -0.995958 0.088344 -0.016233
vn -0.995958 0.088344 -0.016233
vn -0.217622 -0.863382 -0.455206
vn -0.224776 -0.843631 -0.487609
vn -0.209014 -0.946627 -0.245377
vn -0.204994 -0.953006 -0.223064
vn -0.206010 -0.033262 -0.977984
vn -0.216436 -0.041132 -0.975430
vn -0.216899 -0.144620 -0.965422
vn -0.206663 -0.131923 -0.969478
vn -0.179711 0.692039 -0.699132
vn -0.149252 0.919889 -0.362667
vn -0.151144 0.920086 -0.361384
vn -0.181516 0.741331 -0.646127
vn -0.138227 0.969605 -0.201890
vn -0.122095 0.974291 -0.189343
vn -0.153634 -0.951962 -0.264886
vn -0.202415 -0.969809 -0.136006
vn -0.017864 -0.003879 0.999833
vn -0.017864 -0.003879 0.999833
vn -0.017864 -0.003879 0.999833
vn -0.017864 -0.003879 0.999833
vn 0.614047 0.789207 0.009929
vn 0.614047 0.789207 0.009929
vn 0.614047 0.789207 0.009929
vn 0.614047 0.789207 0.009929
vn 0.017508 0.004011 -0.999839
vn 0.017508 0.004011 -0.999839
vn 0.017508 0.004011 -0.999839
vn 0.017508 0.004011 -0.999839
vn -0.589494 0.807682 -0.012102
vn -0.589494 0.807682 -0.012102
vn -0.589494 0.807682 -0.012102
vn -0.589494 0.807682 -0.012102
vn 0.016506 -0.004099 -0.999855
vn 0.016506 -0.004099 -0.999855
vn 0.016506 -0.004099 -0.999855
vn 0.016506 -0.004099 -0.999855
vn 0.598743 -0.800891 0.008918
vn 0.598743 -0.800891 0.008918
vn 0.598743 -0.800891 0.008918
vn 0.598743 -0.800891 0.008918
vn -0.016145 0.004206 0.999861
vn -0.016145 0.004206 0.999861
vn -0.016145 0.004206 0.999861
vn -0.016145 0.004206 0.999861
vn -0.645047 -0.764041 -0.012462
vn -0.645047 -0.764041 -0.012462
vn -0.645047 -0.764041 -0.012462
vn -0.645047 -0.764041 -0.012462
vn 0.026148 -0.977031 -0.211487
vn 0.050260 -0.965739 -0.254603
vn -0.204139 -0.968113 -0.145204
vn -0.020602 -0.776930 -0.629249
vn -0.020602 -0.776930 -0.629249
vn -0.079405 0.945426 -0.316014
vn -0.140951 0.966080 -0.216385
vn -0.064964 0.956559 -0.284208
vn -0.999947 0.008652 -0.005565
vn -0.999947 0.008652 -0.005565
vn 0.113093 0.760260 0.639699
vn 0.129987 0.765788 0.629819
vn 0.240066 0.806600 0.540152
vn 0.266198 0.816352 0.512550
vn 0.909090 -0.227077 0.349274
vn 0.933394 -0.018486 0.358376
vn 0.179539 -0.736668 0.651987
vn 0.198924 -0.732198 0.651394
vn 0.738035 -0.356203 0.573082
vn 0.738035 -0.356203 0.573082
vn 0.738035 -0.356203 0.573082
vn 0.738035 -0.356203 0.573082
vn -0.064955 -0.814013 0.577203
vn -0.014573 -0.814656 0.579761
vn -0.235009 -0.796247 0.557459
vn -0.236418 -0.810067 0.536561
vn -0.238845 -0.828195 0.506997
vn -0.244675 -0.732744 0.634996
vn -0.230048 -0.462608 0.856196
vn -0.230048 -0.462608 0.856196
vn -0.208657 -0.035911 0.977329
vn -0.152118 -0.025656 0.988029
vn -0.196989 0.267670 0.943159
vn -0.221350 0.465909 0.856699
vn -0.215225 0.629289 0.746775
vn -0.200193 0.697563 0.687989
vn -0.186579 0.759077 0.623691
vn -0.074128 0.769751 0.634026
vn -0.049879 0.769052 0.637238
vn -0.999999 -0.000912 -0.000654
vn -0.999999 -0.000912 -0.000654
vn 0.134402 -0.773469 -0.619421
vn 0.136872 -0.745428 0.652382
vn -0.980421 -0.167261 -0.103914
vn -0.980421 -0.167261 -0.103914
vn -0.980421 -0.167261 -0.103914
vn -0.980421 -0.167261 -0.103914
vn 0.043016 0.693625 -0.719050
vn 0.043016 0.693625 -0.719051
vn 0.043016 0.693625 -0.719051
vn 0.043016 0.693625 -0.719050
vn 0.862570 -0.424282 -0.275604
vn 0.862570 -0.424282 -0.275605
vn 0.862570 -0.424282 -0.275605
vn 0.862570 -0.424282 -0.275605
vn -0.014936 -0.677565 0.735311
vn -0.014936 -0.677565 0.735311
vn -0.014936 -0.677565 0.735311
vn -0.014936 -0.677565 0.735311
vn -0.969396 -0.225746 0.096488
vn -0.969396 -0.225746 0.096488
vn -0.969396 -0.225746 0.096488
vn -0.969396 -0.225746 0.096488
vn -0.061862 -0.666711 -0.742744
vn -0.061862 -0.666711 -0.742744
vn -0.061862 -0.666711 -0.742744
vn -0.061862 -0.666711 -0.742744
vn 0.817055 -0.354008 0.455082
vn 0.817055 -0.354008 0.455082
vn 0.817055 -0.354008 0.455082
vn 0.817055 -0.354008 0.455082
vn 0.089330 0.681115 0.726706
vn 0.089330 0.681115 0.726706
vn 0.089330 0.681115 0.726706
vn 0.089330 0.681115 0.726706
vn 0.389294 -0.865399 -0.315490
vn 0.389294 -0.865399 -0.315490
vn 0.389294 -0.865399 -0.315490
vn 0.389294 -0.865399 -0.315490
vn -0.222161 -0.046418 -0.973905
vn -0.221420 -0.156263 -0.962577
vn -0.180623 0.773184 -0.607916
vn -0.151603 0.922052 -0.356142
vn -0.143304 0.966334 -0.213686
vn -0.145116 0.964902 0.218873
vn -0.155431 0.917532 0.366027
vn -0.190317 0.741039 0.643926
vn -0.228284 -0.159011 0.960522
vn -0.229391 -0.048814 0.972109
vn 0.213962 -0.611053 0.762125
vn 0.213962 -0.611053 0.762125
vn 0.213962 -0.611053 0.762125
vn 0.213962 -0.611053 0.762125
vn -0.206477 -0.967581 0.145444
vn -0.208978 -0.952124 0.223134
vn -0.205542 -0.968149 -0.142966
vn -0.207148 -0.953791 -0.217655
vn -0.226746 -0.838400 -0.495653
vn -0.235512 -0.805409 0.543922
vn -0.062427 0.623164 -0.779595
vn -0.062427 0.623164 -0.779595
vn -0.062427 0.623164 -0.779595
vn -0.062427 0.623164 -0.779595
vn 0.666783 -0.697812 -0.261648
vn 0.666783 -0.697812 -0.261648
vn 0.666783 -0.697812 -0.261648
vn 0.666783 -0.697812 -0.261648
vn -0.011930 -0.585104 0.810871
vn -0.011930 -0.585104 0.810871
vn -0.011930 -0.585104 0.810871
vn -0.011930 -0.585104 0.810871
vn -0.961904 -0.272855 -0.017080
vn -0.961904 -0.272855 -0.017080
vn -0.961904 -0.272855 -0.017080
vn -0.961903 -0.272855 -0.017080
vn -0.009396 -0.692882 -0.720990
vn -0.009396 -0.692882 -0.720990
vn -0.009396 -0.692882 -0.720990
vn -0.009396 -0.692882 -0.720990
vn 0.631261 -0.511763 0.582759
vn 0.631261 -0.511763 0.582759
vn 0.631261 -0.511763 0.582759
vn 0.631261 -0.511763 0.582759
vn -0.067202 0.742483 0.666485
vn -0.067202 0.742483 0.666485
vn -0.067202 0.742483 0.666485
vn -0.067202 0.742483 0.666485
vn -0.952844 -0.294451 0.073397
vn -0.952844 -0.294451 0.073397
vn -0.952844 -0.294451 0.073397
vn -0.952844 -0.294451 0.073397
vn 0.125682 0.160497 -0.979002
vn 0.127136 0.162445 -0.978493
vn 0.135453 0.157854 -0.978128
vn 0.139686 0.140506 -0.980177
vn 0.837125 0.513765 -0.187797
vn 0.927202 0.259842 -0.269775
vn 0.808902 0.572322 -0.134630
vn 0.807172 0.574398 0.136164
vn 0.824799 0.531460 0.193022
vn 0.888158 0.308437 0.340650
vn 0.146863 0.195743 0.969596
vn 0.164487 0.231273 0.958883
vn 0.128148 0.162918 0.978282
vn 0.126602 0.161096 0.978785
vn -0.049366 0.163245 0.985350
vn -0.009209 0.171660 0.985113
vn -0.223879 0.123563 0.966753
vn -0.225417 0.124350 0.966294
vn -0.231476 0.126945 0.964523
vn -0.241129 0.130755 0.961644
vn -0.243370 0.105165 0.964215
vn -0.237805 0.075422 0.968380
vn -0.129428 -0.064464 0.989491
vn -0.132169 -0.022040 0.990982
vn -0.536781 -0.486957 0.689013
vn -0.509887 -0.490652 -0.706595
vn -0.122488 -0.093361 -0.988069
vn -0.128592 -0.032177 -0.991175
vn -0.183792 0.075736 -0.980043
vn -0.189394 0.105668 -0.976199
vn -0.202755 0.131167 -0.970405
vn -0.212513 0.128269 -0.968703
vn -0.218261 0.125791 -0.967749
vn -0.219644 0.124341 -0.967624
vn -0.047303 0.162550 -0.985566
vn -0.007650 0.170764 -0.985282
vn 0.985648 -0.017226 -0.167935
vn 0.985648 -0.017226 -0.167935
vn 0.985648 -0.017226 -0.167935
vn 0.985647 -0.017226 -0.167935
s 1
g shark_left
usemtl initialShadingGroup
f 155/216/1 21/35/2 191/259/3 192/260/4
s 2
f 153/214/5 125/185/6 23/38/7 152/213/8
s 3
f 207/276/9 208/277/10 18/32/11 148/209/12
s 4
f 157/219/13 20/34/14 116/174/15 156/218/16
s 5
f 113/169/17 15/28/18 185/251/19 186/252/20
s 6
f 14/25/21 120/178/22 198/266/23 199/267/24
f 7/13/25 103/153/26 201/269/27 202/270/28
s 4
f 148/209/29 18/32/30 99/149/31 147/208/32
s 5
f 183/249/33 96/144/34 8/11/35 182/248/36
s 2
f 149/210/37 150/211/38 108/160/39 17/31/40
s 6
f 10/17/41 14/25/21 199/267/24 200/268/42
s 4
f 158/220/43 19/33/44 20/34/14 157/219/13
s 5
f 185/251/19 15/28/18 11/20/45 184/250/46
s 2
f 152/213/8 23/38/7 24/39/47 151/212/48
s 3
f 208/277/10 179/242/49 26/41/50 18/32/11
s 4
f 99/149/31 18/32/30 26/41/51 98/146/52
f 20/34/14 19/33/44 27/42/53 28/43/54
f 116/174/15 20/34/14 28/43/54 115/171/55
s 1
f 191/259/3 21/35/2 29/44/56 190/256/57
s 2
f 23/38/7 125/185/6 110/162/58 31/47/59
s off
f 42/81/60 41/82/61 43/83/62 44/84/63
s 2
f 17/31/40 108/160/39 93/137/64 25/40/65
s 11
f 179/244/66 180/245/67 127/187/68 26/41/69
s off
f 140/200/70 139/201/71 141/202/72 142/203/73
s 12
f 28/43/74 27/42/75 129/189/76 130/190/77
f 115/173/78 28/43/74 130/190/77 131/191/79
s 13
f 190/258/80 29/44/81 132/192/82 189/255/83
s 14
f 31/47/84 110/164/85 134/195/86 135/196/87
f 32/48/88 31/47/84 135/196/87 136/197/89
f 25/40/90 93/139/91 137/198/92 138/199/93
s off
f 25/49/94 179/243/95 209/278/96 33/52/97
f 26/53/98 98/147/99 27/54/100 35/55/101 34/56/102
f 27/57/103 28/58/104 36/59/105 35/60/106
f 28/61/107 115/172/108 29/62/109 37/63/110 36/64/111
f 29/65/112 190/257/113 30/66/114 38/67/115 37/68/116
s 15
f 30/69/117 110/163/118 126/186/119 38/72/120
s off
f 31/73/121 32/74/122 40/75/123 39/76/124
s 16
f 32/77/125 93/138/126 109/161/127 40/80/128
s off
f 24/39/129 23/38/130 41/82/131 42/81/132
f 23/38/133 31/47/134 43/83/135 41/82/136
f 31/47/137 32/48/138 44/84/139 43/83/140
f 32/48/141 24/39/142 42/81/143 44/84/144
s 11
f 181/246/145 182/247/146 8/8/147 46/86/148
s 12
f 97/145/149 46/86/150 8/8/151 96/143/152
f 48/88/153 47/87/154 11/19/155 15/27/156
f 114/170/157 48/88/153 15/27/156 113/168/158
s 13
f 188/254/159 49/89/160 2/2/161 187/253/162
s 14
f 51/92/163 111/165/164 112/166/165 16/29/166
f 52/93/167 51/92/163 16/29/166 12/21/168
f 45/85/169 94/140/170 95/141/171 6/6/172
s off
f 62/103/173 61/104/174 63/105/175 64/106/176
s 2
f 121/181/177 122/182/178 54/95/179 13/24/180
s 1
f 1/1/181 56/97/182 196/264/183 197/265/184
s 4
f 14/26/185 57/99/186 119/177/187 120/179/188
s off
f 65/107/189 66/108/190 67/109/191 68/110/192
s 4
f 7/7/193 59/101/194 102/152/195 103/154/196
s 3
f 202/271/197 203/272/198 59/101/199 7/7/200
s 2
f 104/156/201 105/157/202 60/102/203 5/5/204
s off
f 13/24/205 54/95/206 61/104/207 62/103/208
f 54/95/209 53/94/210 63/105/211 61/104/212
f 53/94/213 9/16/214 64/106/215 63/105/216
f 9/16/217 13/24/218 62/103/219 64/106/220
f 10/18/221 58/100/222 66/108/223 65/107/224
f 58/100/225 57/99/226 67/109/227 66/108/228
f 57/99/229 14/26/230 68/110/231 67/109/232
f 14/26/233 10/18/234 65/107/235 68/110/236
f 86/129/237 85/130/238 87/131/239 88/132/240
s 2
f 123/183/241 124/184/242 70/112/243 78/121/244
s 1
f 80/123/245 72/114/246 194/262/247 195/263/248
s 4
f 81/125/249 73/116/250 117/175/251 118/176/252
s off
f 89/133/253 90/134/254 91/135/255 92/136/256
s 4
f 83/127/257 75/118/258 100/150/259 101/151/260
s 3
f 204/273/261 205/274/262 75/118/263 83/127/264
s 2
f 84/128/265 106/158/266 107/159/267 76/119/268
f 54/95/179 78/121/244 77/120/269 53/94/270
f 122/182/178 123/183/241 78/121/244 54/95/179
s 1
f 56/97/182 80/123/245 195/263/248 196/264/183
s 4
f 57/99/186 81/125/249 118/176/252 119/177/187
f 58/100/271 82/126/272 81/125/249 57/99/186
f 59/101/194 83/127/257 101/151/260 102/152/195
s 3
f 203/272/198 204/273/261 83/127/264 59/101/199
s 2
f 60/102/203 105/157/202 106/158/266 84/128/265
s off
f 78/121/273 70/112/274 85/130/275 86/129/276
f 70/112/277 69/111/278 87/131/279 85/130/280
f 69/111/281 77/120/282 88/132/283 87/131/284
f 77/120/285 78/121/286 86/129/287 88/132/288
f 82/126/289 74/117/290 90/134/291 89/133/292
f 74/117/293 73/116/294 91/135/295 90/134/296
f 73/116/297 81/125/298 92/136/299 91/135/300
f 81/125/301 82/126/302 89/133/303 92/136/304
s 14
f 93/139/91 32/48/88 136/197/89 137/198/92
f 95/141/171 94/140/170 52/93/167 12/21/168
s 5
f 184/250/46 11/20/45 96/144/34 183/249/33
s 12
f 47/87/154 97/145/149 96/143/152 11/19/155
f 27/42/75 98/148/305 128/188/306 129/189/76
s 4
f 19/33/44 99/149/31 98/146/52 27/42/53
f 158/220/43 147/208/32 99/149/31 19/33/44
f 101/151/260 100/150/259 74/117/307 82/126/272
f 102/152/195 101/151/260 82/126/272 58/100/271
f 103/154/308 102/152/195 58/100/271 10/18/309
s 6
f 201/269/27 103/153/26 10/17/41 200/268/42
s 2
f 9/16/310 53/94/270 105/157/202 104/156/201
f 106/158/266 105/157/202 53/94/270 77/120/269
f 107/159/267 106/158/266 77/120/269 69/111/311
f 108/160/39 150/211/38 151/212/48 24/39/47
f 93/137/64 108/160/39 24/39/47 32/48/312
s 16
f 109/161/127 93/138/126 25/78/313 33/79/314
s 14
f 110/164/85 30/46/315 133/194/316 134/195/86
f 112/166/165 111/165/164 50/91/317 4/4/318
s 5
f 2/2/319 113/169/17 186/252/20 187/253/320
s 12
f 49/90/321 114/170/157 113/168/158 2/10/322
s off
f 144/204/323 143/205/324 145/206/325 146/207/326
s 4
f 21/36/327 116/174/15 115/171/55 29/45/328
f 156/218/16 116/174/15 21/36/327 155/217/329
f 118/176/252 117/175/251 72/115/330 80/124/331
f 119/177/187 118/176/252 80/124/331 56/98/332
f 120/179/333 119/177/187 56/98/332 1/9/334
s 6
f 198/266/23 120/178/22 1/1/335 197/265/336
s 2
f 3/3/337 55/96/338 122/182/178 121/181/177
f 55/96/338 79/122/339 123/183/241 122/182/178
f 79/122/339 71/113/340 124/184/242 123/183/241
f 154/215/341 22/37/342 125/185/6 153/214/5
f 110/162/58 125/185/6 22/37/342 30/46/343
s 15
f 126/186/119 110/163/118 31/70/344 39/71/345
s 12
f 128/188/306 127/187/346 46/86/150 97/145/149
f 129/189/76 128/188/306 97/145/149 47/87/154
f 130/190/77 129/189/76 47/87/154 48/88/153
f 131/191/79 130/190/77 48/88/153 114/170/157
f 132/193/347 131/191/79 114/170/157 49/90/321
s 13
f 189/255/83 132/192/82 49/89/160 188/254/159
s 14
f 134/195/86 133/194/316 50/91/317 111/165/164
f 135/196/87 134/195/86 111/165/164 51/92/163
f 136/197/89 135/196/87 51/92/163 52/93/167
f 137/198/92 136/197/89 52/93/167 94/140/170
f 138/199/93 137/198/92 94/140/170 45/85/169
s 11
f 127/187/68 180/245/67 181/246/145 46/86/148
s off
f 98/148/348 26/41/349 139/201/350 140/200/351
f 26/41/352 127/187/353 141/202/354 139/201/355
f 127/187/356 128/188/357 142/203/358 141/202/359
f 128/188/360 98/148/361 140/200/362 142/203/363
f 29/45/364 115/173/365 143/205/366 144/204/367
f 115/173/368 131/191/369 145/206/370 143/205/371
f 131/191/372 132/193/373 146/207/374 145/206/375
f 132/193/376 29/45/377 144/204/378 146/207/379
f 171/234/380 172/235/381 173/236/382 174/237/383
s 3
f 206/275/384 207/276/9 148/209/12 160/222/385
s 2
f 161/223/386 162/224/387 150/211/38 149/210/37
f 151/212/48 150/211/38 162/224/387 163/225/388
f 164/226/389 152/213/8 151/212/48 163/225/388
f 165/227/390 153/214/5 152/213/8 164/226/389
f 166/228/391 154/215/341 153/214/5 165/227/390
s 1
f 167/229/392 155/216/1 192/260/4 193/261/393
s off
f 176/238/394 175/239/395 177/240/396 178/241/397
s 4
f 169/232/398 157/219/13 156/218/16 168/231/399
f 170/233/400 158/220/43 157/219/13 169/232/398
f 170/233/400 159/221/401 147/208/32 158/220/43
f 75/118/258 160/222/402 159/221/401 100/150/259
s 3
f 205/274/262 206/275/384 160/222/385 75/118/263
s 2
f 76/119/268 107/159/267 162/224/387 161/223/386
f 163/225/388 162/224/387 107/159/267 69/111/311
f 70/112/243 164/226/389 163/225/388 69/111/311
f 124/184/242 165/227/390 164/226/389 70/112/243
f 71/113/340 166/228/391 165/227/390 124/184/242
s 1
f 72/114/246 167/229/392 193/261/393 194/262/247
s 4
f 117/175/251 168/231/399 167/230/403 72/115/330
f 73/116/250 169/232/398 168/231/399 117/175/251
f 74/117/307 170/233/400 169/232/398 73/116/250
f 100/150/259 159/221/401 170/233/400 74/117/307
s off
f 160/222/404 148/209/405 172/235/406 171/234/407
f 148/209/408 147/208/409 173/236/410 172/235/411
f 147/208/412 159/221/413 174/237/414 173/236/415
f 159/221/416 160/222/417 171/234/418 174/237/419
f 168/231/420 156/218/421 175/239/422 176/238/423
f 156/218/424 155/217/425 177/240/426 175/239/427
f 155/217/428 167/230/429 178/241/430 177/240/431
f 167/230/432 168/231/433 176/238/434 178/241/435
s 11
f 25/40/436 138/199/437 180/245/67 179/244/66
f 181/246/145 180/245/67 138/199/437 45/85/438
f 45/85/438 6/6/439 182/247/146 181/246/145
s 5
f 95/142/440 183/249/33 182/248/36 6/12/441
f 12/22/442 184/250/46 183/249/33 95/142/440
f 16/30/443 185/251/19 184/250/46 12/22/442
f 186/252/20 185/251/19 16/30/443 112/167/444
f 187/253/320 186/252/20 112/167/444 4/4/445
s 13
f 50/91/446 188/254/159 187/253/162 4/4/447
f 133/194/448 189/255/83 188/254/159 50/91/446
f 30/46/449 190/258/80 189/255/83 133/194/448
s 1
f 22/37/450 191/259/3 190/256/57 30/46/451
f 192/260/4 191/259/3 22/37/450 154/215/452
f 193/261/393 192/260/4 154/215/452 166/228/453
f 194/262/247 193/261/393 166/228/453 71/113/454
f 195/263/248 194/262/247 71/113/454 79/122/455
f 196/264/183 195/263/248 79/122/455 55/96/456
f 197/265/184 196/264/183 55/96/456 3/3/457
s 6
f 121/180/458 198/266/23 197/265/336 3/3/459
f 199/267/24 198/266/23 121/180/458 13/23/460
f 200/268/42 199/267/24 13/23/460 9/15/461
f 104/155/462 201/269/27 200/268/42 9/15/461
f 202/270/28 201/269/27 104/155/462 5/14/463
s 3
f 5/5/464 60/102/465 203/272/198 202/271/197
f 60/102/465 84/128/466 204/273/261 203/272/198
f 84/128/466 76/119/467 205/274/262 204/273/261
f 76/119/467 161/223/468 206/275/384 205/274/262
f 161/223/468 149/210/469 207/276/9 206/275/384
f 149/210/469 17/31/470 208/277/10 207/276/9
f 17/31/470 25/40/471 179/242/49 208/277/10
s off
f 209/278/472 179/243/473 26/50/474 34/51/475
